{
   "photos":{
      "page":1,
      "pages":58975,
      "perpage":20,
      "total":1179489,
      "photo":[
         {
            "id":"51624222830",
            "owner":"193678137@N03",
            "secret":"584042ec84",
            "server":"65535",
            "farm":66,
            "title":"my profile picture",
            "ispublic":1,
            "isfriend":0,
            "isfamily":0
         },
         {
            "id":"51623510268",
            "owner":"93245745@N05",
            "secret":"4245605f4b",
            "server":"65535",
            "farm":66,
            "title":"Cricket Mania | Nov 2019",
            "ispublic":1,
            "isfriend":0,
            "isfamily":0
         },
         {
            "id":"51623654639",
            "owner":"97183838@N00",
            "secret":"a09bbf7e24",
            "server":"65535",
            "farm":66,
            "title":"We're done",
            "ispublic":1,
            "isfriend":0,
            "isfamily":0
         },
         {
            "id":"51622150702",
            "owner":"192708916@N06",
            "secret":"69a585cf79",
            "server":"65535",
            "farm":66,
            "title":"Dark bush cricket",
            "ispublic":1,
            "isfriend":0,
            "isfamily":0
         },
         {
            "id":"51623206488",
            "owner":"192708916@N06",
            "secret":"7fab05fb29",
            "server":"65535",
            "farm":66,
            "title":"Dark bush cricket",
            "ispublic":1,
            "isfriend":0,
            "isfamily":0
         },
         {
            "id":"51621072157",
            "owner":"141738822@N07",
            "secret":"8b364b18e3",
            "server":"65535",
            "farm":66,
            "title":"T20 World Cup 2021",
            "ispublic":1,
            "isfriend":0,
            "isfamily":0
         },
         {
            "id":"51622058173",
            "owner":"193011365@N02",
            "secret":"68c4231f82",
            "server":"65535",
            "farm":66,
            "title":"Leptophyes punctatissima - Speckled Bush-cricket",
            "ispublic":1,
            "isfriend":0,
            "isfamily":0
         },
         {
            "id":"51621925638",
            "owner":"160693949@N03",
            "secret":"dcb7f5d22d",
            "server":"65535",
            "farm":66,
            "title":"Arbroath United CC team 1987",
            "ispublic":1,
            "isfriend":0,
            "isfamily":0
         },
         {
            "id":"51621852583",
            "owner":"154996857@N06",
            "secret":"99525861b4",
            "server":"65535",
            "farm":66,
            "title":"T20 World Cup Betting Tips: ENG vs WI Dream 11 Prediction",
            "ispublic":1,
            "isfriend":0,
            "isfamily":0
         },
         {
            "id":"51620581337",
            "owner":"194142023@N07",
            "secret":"191dc83fd0",
            "server":"65535",
            "farm":66,
            "title":"Free Online Cricket Betting In India",
            "ispublic":1,
            "isfriend":0,
            "isfamily":0
         },
         {
            "id":"51621604338",
            "owner":"193575568@N05",
            "secret":"424c669a0d",
            "server":"65535",
            "farm":66,
            "title":"2.5 lakh In Winning",
            "ispublic":1,
            "isfriend":0,
            "isfamily":0
         },
         {
            "id":"51622225585",
            "owner":"186894606@N02",
            "secret":"2f233a03a3",
            "server":"65535",
            "farm":66,
            "title":"Buy DSC Cricket Bats Online",
            "ispublic":1,
            "isfriend":0,
            "isfamily":0
         },
         {
            "id":"51621557018",
            "owner":"194131993@N06",
            "secret":"e43a542dbd",
            "server":"65535",
            "farm":66,
            "title":"England-vs-West-Indies-Betting-Tips-14th-t20-match-t20-world-cup-2021",
            "ispublic":1,
            "isfriend":0,
            "isfamily":0
         },
         {
            "id":"51622184435",
            "owner":"8209127@N04",
            "secret":"3d801575ee",
            "server":"65535",
            "farm":66,
            "title":"Dark Bush Cricket",
            "ispublic":1,
            "isfriend":0,
            "isfamily":0
         },
         {
            "id":"51621519428",
            "owner":"24143601@N08",
            "secret":"e7efa3c7ba",
            "server":"0",
            "farm":0,
            "title":"Tawa College 1st XI vs St Pats Wellington 2nd XI Cricket",
            "ispublic":1,
            "isfriend":0,
            "isfamily":0
         },
         {
            "id":"51621280666",
            "owner":"24143601@N08",
            "secret":"6cf572fbe8",
            "server":"0",
            "farm":0,
            "title":"Tawa College 1st XI vs St Pats Wellington 2nd XI Cricket",
            "ispublic":1,
            "isfriend":0,
            "isfamily":0
         },
         {
            "id":"51620454287",
            "owner":"24143601@N08",
            "secret":"7509ef0a3f",
            "server":"0",
            "farm":0,
            "title":"Tawa College 1st XI vs St Pats Wellington 2nd XI Cricket",
            "ispublic":1,
            "isfriend":0,
            "isfamily":0
         },
         {
            "id":"51621938649",
            "owner":"24143601@N08",
            "secret":"f6fe62cee7",
            "server":"0",
            "farm":0,
            "title":"Tawa College 1st XI vs St Pats Wellington 2nd XI Cricket",
            "ispublic":1,
            "isfriend":0,
            "isfamily":0
         },
         {
            "id":"51621511543",
            "owner":"24143601@N08",
            "secret":"df6b21918e",
            "server":"0",
            "farm":0,
            "title":"Tawa College 1st XI vs St Pats Wellington 2nd XI Cricket",
            "ispublic":1,
            "isfriend":0,
            "isfamily":0
         },
         {
            "id":"51622156545",
            "owner":"24143601@N08",
            "secret":"b677205939",
            "server":"0",
            "farm":0,
            "title":"Tawa College 1st XI vs St Pats Wellington 2nd XI Cricket",
            "ispublic":1,
            "isfriend":0,
            "isfamily":0
         }
      ]
   },
   "stat":"ok"
}
